^F:\QYL-C#\CHEAPER-9\STUDENTINFOMS\STUDENTINFOMS\STUDENTINFOMS\FRMEDITSTUDENT.RESX
^F:\QYL-C#\CHEAPER-9\STUDENTINFOMS\STUDENTINFOMS\STUDENTINFOMS\FRMMAIN.RESX
^F:\QYL-C#\CHEAPER-9\STUDENTINFOMS\STUDENTINFOMS\STUDENTINFOMS\FRMSTUDENT.RESX
^F:\QYL-C#\CHEAPER-9\STUDENTINFOMS\STUDENTINFOMS\STUDENTINFOMS\PROPERTIES\RESOURCES.RESX
^F:\QYL-C#\CHEAPER-9\STUDENTINFOMS\STUDENTINFOMS\STUDENTINFOMS\FRMTEXT.RESX
^F:\QYL-C#\CHEAPER-9\STUDENTINFOMS\STUDENTINFOMS\STUDENTINFOMS\FRMLOGIN.RESX
^F:\QYL-C#\CHEAPER10\STUDENTINFOMS\STUDENTINFOMS\STUDENTINFOMS\FRMLOGIN.RESX
^F:\QYL-C#\CHEAPER10\STUDENTINFOMS\STUDENTINFOMS\STUDENTINFOMS\FRMMAIN.RESX
^F:\QYL-C#\CHEAPER10\STUDENTINFOMS\STUDENTINFOMS\STUDENTINFOMS\FRMTEXT.RESX
^F:\QYL-C#\CHEAPER10\STUDENTINFOMS\STUDENTINFOMS\STUDENTINFOMS\PROPERTIES\RESOURCES.RESX
^F:\QYL-C#\CHEAPER10\STUDENTINFOMS\STUDENTINFOMS\STUDENTINFOMS\FRMEDITSTUDENT.RESX
^F:\QYL-C#\CHEAPER10\STUDENTINFOMS\STUDENTINFOMS\STUDENTINFOMS\FRMSTUDENT.RESX
^F:\QYL-C#\CHEAPER11\STUDENTINFOMS\STUDENTINFOMS\STUDENTINFOMS\FRMEDITSTUDENT.RESX
^F:\QYL-C#\CHEAPER11\STUDENTINFOMS\STUDENTINFOMS\STUDENTINFOMS\FRMLOGIN.RESX
^F:\QYL-C#\CHEAPER11\STUDENTINFOMS\STUDENTINFOMS\STUDENTINFOMS\FRMMAIN.RESX
^F:\QYL-C#\CHEAPER11\STUDENTINFOMS\STUDENTINFOMS\STUDENTINFOMS\FRMSTUDENT.RESX
^F:\QYL-C#\CHEAPER11\STUDENTINFOMS\STUDENTINFOMS\STUDENTINFOMS\FRMTEXT.RESX
^F:\QYL-C#\CHEAPER11\STUDENTINFOMS\STUDENTINFOMS\STUDENTINFOMS\PROPERTIES\RESOURCES.RESX
^F:\QYL-C#\CHEAPER11\STUDENTINFOMS\STUDENTINFOMS\STUDENTINFOMS\FORM1.RESX
^F:\QYL-C#\CHEAPER11\STUDENTINFOMS\STUDENTINFOMS\STUDENTINFOMS\FORMCLASSINFO.RESX
^F:\QYL-C#\CHEAPER11\STUDENTINFOMS\STUDENTINFOMS\STUDENTINFOMS\FRMCLASSHOUR.RESX
^F:\QYL-C#\CHEAPER12\STUDENTINFOMS\STUDENTINFOMS\FORM1.RESX
^F:\QYL-C#\CHEAPER12\STUDENTINFOMS\STUDENTINFOMS\FORMCLASSINFO.RESX
^F:\QYL-C#\CHEAPER12\STUDENTINFOMS\STUDENTINFOMS\FRMCLASSHOUR.RESX
^F:\QYL-C#\CHEAPER12\STUDENTINFOMS\STUDENTINFOMS\FRMEDITSTUDENT.RESX
^F:\QYL-C#\CHEAPER12\STUDENTINFOMS\STUDENTINFOMS\FRMLOGIN.RESX
^F:\QYL-C#\CHEAPER12\STUDENTINFOMS\STUDENTINFOMS\FRMMAIN.RESX
^F:\QYL-C#\CHEAPER12\STUDENTINFOMS\STUDENTINFOMS\FRMSTUDENT.RESX
^F:\QYL-C#\CHEAPER12\STUDENTINFOMS\STUDENTINFOMS\FRMTEXT.RESX
^F:\QYL-C#\CHEAPER12\STUDENTINFOMS\STUDENTINFOMS\PROPERTIES\RESOURCES.RESX
^F:\QYL-C#\CHEAPER12\STUDENTINFOMS\STUDENTINFOMS\FRMSCORE.RESX
^F:\QYL-C#\CHEAPER13\STUDENTINFOMS\STUDENTINFOMS\FORM1.RESX
^F:\QYL-C#\CHEAPER13\STUDENTINFOMS\STUDENTINFOMS\FORMCLASSINFO.RESX
^F:\QYL-C#\CHEAPER13\STUDENTINFOMS\STUDENTINFOMS\FRMCLASSHOUR.RESX
^F:\QYL-C#\CHEAPER13\STUDENTINFOMS\STUDENTINFOMS\FRMEDITSTUDENT.RESX
^F:\QYL-C#\CHEAPER13\STUDENTINFOMS\STUDENTINFOMS\FRMLOGIN.RESX
^F:\QYL-C#\CHEAPER13\STUDENTINFOMS\STUDENTINFOMS\FRMMAIN.RESX
^F:\QYL-C#\CHEAPER13\STUDENTINFOMS\STUDENTINFOMS\FRMSCORE.RESX
^F:\QYL-C#\CHEAPER13\STUDENTINFOMS\STUDENTINFOMS\FRMSTUDENT.RESX
^F:\QYL-C#\CHEAPER13\STUDENTINFOMS\STUDENTINFOMS\FRMTEXT.RESX
^F:\QYL-C#\CHEAPER13\STUDENTINFOMS\STUDENTINFOMS\PROPERTIES\RESOURCES.RESX
^F:\QYL-C#\CHEAPER13\STUDENTINFOMS\STUDENTINFOMS\FRMTICKET.RESX
